^C:\USERS\WILLIAM272\ONEDRIVE - FOX VALLEY TECHNICAL COLLEGE\SECOND SEMESTER\C++\ASSIGNMENTS\WS.POINTERS\ASSIGNMENT 3 - POINTERS\ASSIGNMENT 3 - POINTERS\X64\DEBUG\MAIN.OBJ
C:\USERS\WILLIAM272\ONEDRIVE - FOX VALLEY TECHNICAL COLLEGE\SECOND SEMESTER\C++\ASSIGNMENTS\WS.POINTERS\ASSIGNMENT 3 - POINTERS\X64\DEBUG\ASSIGNMENT 3 - POINTERS.ILK
C:\USERS\WILLIAM272\ONEDRIVE - FOX VALLEY TECHNICAL COLLEGE\SECOND SEMESTER\C++\ASSIGNMENTS\WS.POINTERS\ASSIGNMENT 3 - POINTERS\X64\DEBUG\ASSIGNMENT 3 - POINTERS.EXE
C:\USERS\WILLIAM272\ONEDRIVE - FOX VALLEY TECHNICAL COLLEGE\SECOND SEMESTER\C++\ASSIGNMENTS\WS.POINTERS\ASSIGNMENT 3 - POINTERS\X64\DEBUG\ASSIGNMENT 3 - POINTERS.PDB
